{
  "models": [
    {
      "title": "Claude 3.5 Sonnet",
      "provider": "anthropic",
      "model": "claude-3-5-sonnet-20240620",
      "apiKey": "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"
    }
  ],
  "tabAutocompleteModel": {
    "title": "Codestral",
    "provider": "mistral",
    "model": "codestral-latest"
  },
  "embeddingsProvider": [
    {
      "provider": "mistral",
      "model": "mistral-embed",
      "apiKey": "[API_KEY]",
      "apiBase": "https://api.mistral.ai/v1"
    }
  ]
}